digraph "Scena&lt; rdron, rwirnik, rwoda, rziemia &gt;"
{
  edge [fontname="Helvetica",fontsize="10",labelfontname="Helvetica",labelfontsize="10"];
  node [fontname="Helvetica",fontsize="10",shape=record];
  Node2 [label="Scena\< rdron, rwirnik,\l rwoda, rziemia \>",height=0.2,width=0.4,color="black", fillcolor="grey75", style="filled", fontcolor="black"];
  Node3 -> Node2 [dir="back",color="midnightblue",fontsize="10",style="solid",fontname="Helvetica"];
  Node3 [label="Prostopadloscian\< rdron\|\l\|rwirnik\|\|rwoda\|\|rziemia \>",height=0.2,width=0.4,color="black", fillcolor="white", style="filled",URL="$class_prostopadloscian.html"];
}
