digraph "Graphical Class Hierarchy"
{
  edge [fontname="Helvetica",fontsize="10",labelfontname="Helvetica",labelfontsize="10"];
  node [fontname="Helvetica",fontsize="10",shape=record];
  rankdir="LR";
  Node0 [label="SMacierz\< STyp, SWymiar \>",height=0.2,width=0.4,color="black", fillcolor="white", style="filled",URL="$class_s_macierz.html",tooltip="Klasa modelująca Macierz o zadanym typie danych STyp, i zadanym wymiarze SWymiar. ..."];
}
